Introduction to
…
Creating new columns

gapminder %>%
    filter(year == 2007) %>%
    mutate(totalGdp = pop * gdpPercap/1000000) # To have it in millions

# A tibble: 142 x 7
   country     continent  year lifeExp       pop gdpPercap totalGdp
   <fct>       <fct>     <int>   <dbl>     <int>     <dbl>    <dbl>
 1 Afghanistan Asia       2007    43.8  31889923      975.   31079.
 2 Albania     Europe     2007    76.4   3600523     5937.   21376.
 3 Algeria     Africa     2007    72.3  33333216     6223.  207445.
 4 Angola      Africa     2007    42.7  12420476     4797.   59584.
 5 Argentina   Americas   2007    75.3  40301927    12779.  515034.
 6 Australia   Oceania    2007    81.2  20434176    34435.  703658.
 7 Austria     Europe     2007    79.8   8199783    36126.  296229.
 8 Bahrain     Asia       2007    75.6    708573    29796.   21113.
 9 Bangladesh  Asia       2007    64.1 150448339     1391.  209312.
10 Belgium     Europe     2007    79.4  10392226    33693.  350141.
# … with 132 more rows
…
Tidying it up
pivot_longer() helps us to change it to a long format

which later will be needed for ggplot

relig_income %>%
    pivot_longer(!religion, names_to = "income", values_to = "count") %>%
    group_by(religion) %>%
    mutate(total=sum(count), percent= count/total*100)

# A tibble: 180 x 5
# Groups:   religion [18]
   religion income             count total percent
   <chr>    <chr>              <dbl> <dbl>   <dbl>
 1 Agnostic <$10k                 27   826    3.27
 2 Agnostic $10-20k               34   826    4.12
 3 Agnostic $20-30k               60   826    7.26
 4 Agnostic $30-40k               81   826    9.81
 5 Agnostic $40-50k               76   826    9.20
 6 Agnostic $50-75k              137   826   16.6
 7 Agnostic $75-100k             122   826   14.8
 8 Agnostic $100-150k            109   826   13.2
 9 Agnostic >150k                 84   826   10.2
10 Agnostic Dont know/refused    96   826   11.6
# … with 170 more rows
…
